%YAML 1.1
%TAG !u! tag:unity3d.com,2011:
--- !u!1001 &100100000
Prefab:
  m_ObjectHideFlags: 1
  serializedVersion: 2
  m_Modification:
    m_TransformParent: {fileID: 0}
    m_Modifications: []
    m_RemovedComponents: []
  m_ParentPrefab: {fileID: 0}
  m_RootGameObject: {fileID: 1287477423480170}
  m_IsPrefabParent: 1
--- !u!1 &1287477423480170
GameObject:
  m_ObjectHideFlags: 0
  m_PrefabParentObject: {fileID: 0}
  m_PrefabInternal: {fileID: 100100000}
  serializedVersion: 5
  m_Component:
  - component: {fileID: 4327233415528742}
  - component: {fileID: 114760119733450090}
  m_Layer: 0
  m_Name: OrbitronLight
  m_TagString: Untagged
  m_Icon: {fileID: 0}
  m_NavMeshLayer: 0
  m_StaticEditorFlags: 0
  m_IsActive: 1
--- !u!4 &4327233415528742
Transform:
  m_ObjectHideFlags: 1
  m_PrefabParentObject: {fileID: 0}
  m_PrefabInternal: {fileID: 100100000}
  m_GameObject: {fileID: 1287477423480170}
  m_LocalRotation: {x: 0, y: 0, z: 0, w: 1}
  m_LocalPosition: {x: 0, y: 0, z: 0}
  m_LocalScale: {x: 1, y: 1, z: 1}
  m_Children: []
  m_Father: {fileID: 0}
  m_RootOrder: 0
  m_LocalEulerAnglesHint: {x: 0, y: 0, z: 0}
--- !u!114 &114760119733450090
MonoBehaviour:
  m_ObjectHideFlags: 1
  m_PrefabParentObject: {fileID: 0}
  m_PrefabInternal: {fileID: 100100000}
  m_GameObject: {fileID: 1287477423480170}
  m_Enabled: 1
  m_EditorHideFlags: 0
  m_Script: {fileID: 11500000, guid: 0b4eb3a400afab046abb8471a9d746d6, type: 3}
  m_Name: 
  m_EditorClassIdentifier: 
  mMat: {fileID: 2100000, guid: b46133f1e246a294dba11b7352dc8a9c, type: 2}
  mUVRect:
    serializedVersion: 2
    x: 0
    y: 0
    width: 1
    height: 1
  mFont:
    mSize: 16
    mBase: 0
    mWidth: 256
    mHeight: 128
    mSpriteName: 
    mSaved:
    - index: 32
      x: 0
      y: 0
      width: 0
      height: 0
      offsetX: 0
      offsetY: 0
      advance: 4
      channel: 15
      kerning: 
    - index: 33
      x: 86
      y: 71
      width: 2
      height: 12
      offsetX: 1
      offsetY: 2
      advance: 4
      channel: 15
      kerning: 33000000feffffff
    - index: 34
      x: 14
      y: 54
      width: 4
      height: 3
      offsetX: 1
      offsetY: 2
      advance: 6
      channel: 15
      kerning: 
    - index: 35
      x: 101
      y: 90
      width: 13
      height: 12
      offsetX: 0
      offsetY: 2
      advance: 13
      channel: 15
      kerning: 
    - index: 36
      x: 37
      y: 14
      width: 12
      height: 15
      offsetX: 0
      offsetY: 1
      advance: 13
      channel: 15
      kerning: 
    - index: 37
      x: 54
      y: 19
      width: 14
      height: 12
      offsetX: 1
      offsetY: 2
      advance: 15
      channel: 15
      kerning: 
    - index: 38
      x: 37
      y: 1
      width: 15
      height: 12
      offsetX: 0
      offsetY: 2
      advance: 15
      channel: 15
      kerning: 
    - index: 39
      x: 86
      y: 53
      width: 2
      height: 3
      offsetX: 1
      offsetY: 2
      advance: 4
      channel: 15
      kerning: 
    - index: 40
      x: 70
      y: 89
      width: 3
      height: 12
      offsetX: 0
      offsetY: 2
      advance: 4
      channel: 15
      kerning: 
    - index: 41
      x: 158
      y: 0
      width: 3
      height: 12
      offsetX: 0
      offsetY: 2
      advance: 4
      channel: 15
      kerning: 
    - index: 42
      x: 66
      y: 41
      width: 7
      height: 7
      offsetX: 0
      offsetY: 2
      advance: 8
      channel: 15
      kerning: 
    - index: 43
      x: 66
      y: 66
      width: 7
      height: 6
      offsetX: 0
      offsetY: 6
      advance: 7
      channel: 15
      kerning: 
    - index: 44
      x: 69
      y: 2
      width: 2
      height: 3
      offsetX: 0
      offsetY: 13
      advance: 3
      channel: 15
      kerning: 
    - index: 45
      x: 14
      y: 86
      width: 8
      height: 2
      offsetX: 0
      offsetY: 8
      advance: 8
      channel: 15
      kerning: 
    - index: 46
      x: 50
      y: 14
      width: 2
      height: 2
      offsetX: 0
      offsetY: 12
      advance: 3
      channel: 15
      kerning: 
    - index: 47
      x: 153
      y: 26
      width: 9
      height: 12
      offsetX: 0
      offsetY: 2
      advance: 8
      channel: 15
      kerning: 
    - index: 48
      x: 101
      y: 12
      width: 13
      height: 12
      offsetX: 0
      offsetY: 2
      advance: 13
      channel: 15
      kerning: 
    - index: 49
      x: 67
      y: 105
      width: 5
      height: 12
      offsetX: 0
      offsetY: 2
      advance: 6
      channel: 15
      kerning: 
    - index: 50
      x: 101
      y: 64
      width: 13
      height: 12
      offsetX: 0
      offsetY: 2
      advance: 13
      channel: 15
      kerning: 
    - index: 51
      x: 115
      y: 116
      width: 13
      height: 12
      offsetX: 0
      offsetY: 2
      advance: 13
      channel: 15
      kerning: 
    - index: 52
      x: 192
      y: 92
      width: 12
      height: 12
      offsetX: -1
      offsetY: 2
      advance: 12
      channel: 15
      kerning: 
    - index: 53
      x: 101
      y: 116
      width: 13
      height: 12
      offsetX: 0
      offsetY: 2
      advance: 13
      channel: 15
      kerning: 
    - index: 54
      x: 115
      y: 103
      width: 13
      height: 12
      offsetX: 0
      offsetY: 2
      advance: 13
      channel: 15
      kerning: 
    - index: 55
      x: 231
      y: 92
      width: 11
      height: 12
      offsetX: -1
      offsetY: 2
      advance: 11
      channel: 15
      kerning: 
    - index: 56
      x: 115
      y: 90
      width: 13
      height: 12
      offsetX: 0
      offsetY: 2
      advance: 13
      channel: 15
      kerning: 
    - index: 57
      x: 115
      y: 77
      width: 13
      height: 12
      offsetX: 0
      offsetY: 2
      advance: 13
      channel: 15
      kerning: 
    - index: 58
      x: 86
      y: 57
      width: 2
      height: 10
      offsetX: 0
      offsetY: 4
      advance: 3
      channel: 15
      kerning: 
    - index: 59
      x: 20
      y: 103
      width: 2
      height: 12
      offsetX: 0
      offsetY: 4
      advance: 3
      channel: 15
      kerning: 
    - index: 60
      x: 66
      y: 73
      width: 7
      height: 9
      offsetX: 0
      offsetY: 5
      advance: 8
      channel: 15
      kerning: 
    - index: 61
      x: 54
      y: 0
      width: 10
      height: 5
      offsetX: 0
      offsetY: 7
      advance: 10
      channel: 15
      kerning: 
    - index: 62
      x: 14
      y: 25
      width: 8
      height: 9
      offsetX: 0
      offsetY: 5
      advance: 8
      channel: 15
      kerning: 
    - index: 63
      x: 141
      y: 32
      width: 11
      height: 12
      offsetX: 0
      offsetY: 2
      advance: 11
      channel: 15
      kerning: 
    - index: 64
      x: 115
      y: 64
      width: 13
      height: 12
      offsetX: 0
      offsetY: 2
      advance: 13
      channel: 15
      kerning: 
    - index: 65
      x: 179
      y: 92
      width: 12
      height: 12
      offsetX: 1
      offsetY: 2
      advance: 13
      channel: 15
      kerning: 25000000feffffff
    - index: 66
      x: 166
      y: 92
      width: 12
      height: 12
      offsetX: 1
      offsetY: 2
      advance: 13
      channel: 15
      kerning: 
    - index: 67
      x: 115
      y: 51
      width: 13
      height: 12
      offsetX: 0
      offsetY: 2
      advance: 13
      channel: 15
      kerning: d6000000fdffffff
    - index: 68
      x: 153
      y: 92
      width: 12
      height: 12
      offsetX: 1
      offsetY: 2
      advance: 13
      channel: 15
      kerning: 
    - index: 69
      x: 153
      y: 79
      width: 11
      height: 12
      offsetX: 1
      offsetY: 2
      advance: 12
      channel: 15
      kerning: 25000000ffffffff
    - index: 70
      x: 141
      y: 6
      width: 11
      height: 12
      offsetX: 1
      offsetY: 2
      advance: 12
      channel: 15
      kerning: 
    - index: 71
      x: 115
      y: 38
      width: 13
      height: 12
      offsetX: 0
      offsetY: 2
      advance: 13
      channel: 15
      kerning: d6000000fcffffff
    - index: 72
      x: 115
      y: 25
      width: 13
      height: 12
      offsetX: 0
      offsetY: 2
      advance: 14
      channel: 15
      kerning: 
    - index: 73
      x: 86
      y: 87
      width: 2
      height: 12
      offsetX: 0
      offsetY: 2
      advance: 4
      channel: 15
      kerning: 
    - index: 74
      x: 218
      y: 92
      width: 12
      height: 12
      offsetX: 0
      offsetY: 2
      advance: 12
      channel: 15
      kerning: 
    - index: 75
      x: 205
      y: 92
      width: 12
      height: 12
      offsetX: 0
      offsetY: 2
      advance: 13
      channel: 15
      kerning: 
    - index: 76
      x: 115
      y: 12
      width: 13
      height: 12
      offsetX: 0
      offsetY: 2
      advance: 12
      channel: 15
      kerning: 25000000feffffff
    - index: 77
      x: 54
      y: 6
      width: 14
      height: 12
      offsetX: 0
      offsetY: 2
      advance: 15
      channel: 15
      kerning: 
    - index: 78
      x: 129
      y: 116
      width: 13
      height: 12
      offsetX: 0
      offsetY: 2
      advance: 13
      channel: 15
      kerning: 
    - index: 79
      x: 143
      y: 116
      width: 13
      height: 12
      offsetX: 0
      offsetY: 2
      advance: 13
      channel: 15
      kerning: 
    - index: 80
      x: 157
      y: 116
      width: 13
      height: 12
      offsetX: 0
      offsetY: 2
      advance: 13
      channel: 15
      kerning: 
    - index: 81
      x: 74
      y: 116
      width: 14
      height: 12
      offsetX: 0
      offsetY: 2
      advance: 14
      channel: 15
      kerning: 
    - index: 82
      x: 171
      y: 116
      width: 13
      height: 12
      offsetX: 0
      offsetY: 2
      advance: 13
      channel: 15
      kerning: 
    - index: 83
      x: 185
      y: 116
      width: 13
      height: 12
      offsetX: 0
      offsetY: 2
      advance: 13
      channel: 15
      kerning: 4c000000ffffffff
    - index: 84
      x: 101
      y: 25
      width: 13
      height: 12
      offsetX: 0
      offsetY: 2
      advance: 12
      channel: 15
      kerning: 
    - index: 85
      x: 199
      y: 116
      width: 13
      height: 12
      offsetX: 0
      offsetY: 2
      advance: 13
      channel: 15
      kerning: 
    - index: 86
      x: 37
      y: 116
      width: 16
      height: 12
      offsetX: 0
      offsetY: 2
      advance: 16
      channel: 15
      kerning: 
    - index: 87
      x: 0
      y: 103
      width: 19
      height: 12
      offsetX: 0
      offsetY: 2
      advance: 19
      channel: 15
      kerning: 
    - index: 88
      x: 213
      y: 116
      width: 13
      height: 12
      offsetX: 0
      offsetY: 2
      advance: 13
      channel: 15
      kerning: 
    - index: 89
      x: 101
      y: 103
      width: 13
      height: 12
      offsetX: 0
      offsetY: 2
      advance: 13
      channel: 15
      kerning: 
    - index: 90
      x: 101
      y: 77
      width: 13
      height: 12
      offsetX: 0
      offsetY: 2
      advance: 13
      channel: 15
      kerning: 
    - index: 91
      x: 165
      y: 79
      width: 3
      height: 12
      offsetX: 0
      offsetY: 2
      advance: 4
      channel: 15
      kerning: 
    - index: 92
      x: 153
      y: 13
      width: 9
      height: 12
      offsetX: 0
      offsetY: 2
      advance: 8
      channel: 15
      kerning: 
    - index: 93
      x: 50
      y: 17
      width: 3
      height: 12
      offsetX: 0
      offsetY: 2
      advance: 4
      channel: 15
      kerning: 
    - index: 95
      x: 74
      y: 1
      width: 13
      height: 2
      offsetX: 0
      offsetY: 14
      advance: 13
      channel: 15
      kerning: 
    - index: 96
      x: 70
      y: 85
      width: 3
      height: 3
      offsetX: 0
      offsetY: -3
      advance: 3
      channel: 15
      kerning: 
    - index: 97
      x: 169
      y: 105
      width: 11
      height: 10
      offsetX: 0
      offsetY: 4
      advance: 11
      channel: 15
      kerning: 
    - index: 98
      x: 141
      y: 45
      width: 11
      height: 12
      offsetX: 0
      offsetY: 2
      advance: 11
      channel: 15
      kerning: 
    - index: 99
      x: 181
      y: 105
      width: 11
      height: 10
      offsetX: 0
      offsetY: 4
      advance: 11
      channel: 15
      kerning: 
    - index: 100
      x: 153
      y: 39
      width: 10
      height: 12
      offsetX: 0
      offsetY: 2
      advance: 11
      channel: 15
      kerning: 
    - index: 101
      x: 129
      y: 0
      width: 11
      height: 10
      offsetX: 0
      offsetY: 4
      advance: 11
      channel: 15
      kerning: 
    - index: 102
      x: 14
      y: 89
      width: 7
      height: 13
      offsetX: 0
      offsetY: 1
      advance: 7
      channel: 15
      kerning: 
    - index: 103
      x: 141
      y: 71
      width: 10
      height: 14
      offsetX: 0
      offsetY: 4
      advance: 11
      channel: 15
      kerning: 
    - index: 104
      x: 243
      y: 92
      width: 11
      height: 12
      offsetX: 0
      offsetY: 2
      advance: 11
      channel: 15
      kerning: 
    - index: 105
      x: 51
      y: 31
      width: 2
      height: 13
      offsetX: 0
      offsetY: 1
      advance: 3
      channel: 15
      kerning: 
    - index: 106
      x: 14
      y: 0
      width: 6
      height: 17
      offsetX: -3
      offsetY: 1
      advance: 4
      channel: 15
      kerning: 
    - index: 107
      x: 153
      y: 52
      width: 10
      height: 12
      offsetX: 0
      offsetY: 2
      advance: 10
      channel: 15
      kerning: 
    - index: 108
      x: 69
      y: 19
      width: 4
      height: 12
      offsetX: 1
      offsetY: 2
      advance: 5
      channel: 15
      kerning: 
    - index: 109
      x: 153
      y: 105
      width: 15
      height: 10
      offsetX: 0
      offsetY: 4
      advance: 16
      channel: 15
      kerning: 
    - index: 110
      x: 101
      y: 1
      width: 11
      height: 10
      offsetX: 0
      offsetY: 4
      advance: 11
      channel: 15
      kerning: 
    - index: 111
      x: 115
      y: 1
      width: 11
      height: 10
      offsetX: 0
      offsetY: 4
      advance: 11
      channel: 15
      kerning: 
    - index: 112
      x: 89
      y: 37
      width: 11
      height: 14
      offsetX: 0
      offsetY: 4
      advance: 11
      channel: 15
      kerning: 
    - index: 113
      x: 141
      y: 86
      width: 10
      height: 14
      offsetX: 0
      offsetY: 4
      advance: 11
      channel: 15
      kerning: 
    - index: 114
      x: 14
      y: 58
      width: 8
      height: 10
      offsetX: 0
      offsetY: 4
      advance: 8
      channel: 15
      kerning: 
    - index: 115
      x: 205
      y: 105
      width: 10
      height: 10
      offsetX: 0
      offsetY: 4
      advance: 11
      channel: 15
      kerning: 
    - index: 116
      x: 14
      y: 73
      width: 7
      height: 12
      offsetX: 0
      offsetY: 2
      advance: 7
      channel: 15
      kerning: cb000000feffffff
    - index: 117
      x: 228
      y: 106
      width: 11
      height: 9
      offsetX: 0
      offsetY: 5
      advance: 11
      channel: 15
      kerning: 
    - index: 118
      x: 23
      y: 2
      width: 13
      height: 9
      offsetX: 0
      offsetY: 5
      advance: 13
      channel: 15
      kerning: 
    - index: 119
      x: 227
      y: 119
      width: 17
      height: 9
      offsetX: 0
      offsetY: 5
      advance: 17
      channel: 15
      kerning: 
    - index: 120
      x: 216
      y: 106
      width: 11
      height: 9
      offsetX: 0
      offsetY: 5
      advance: 11
      channel: 15
      kerning: 
    - index: 121
      x: 153
      y: 65
      width: 10
      height: 13
      offsetX: 0
      offsetY: 5
      advance: 11
      channel: 15
      kerning: 
    - index: 122
      x: 193
      y: 105
      width: 11
      height: 10
      offsetX: 0
      offsetY: 4
      advance: 11
      channel: 15
      kerning: 
    - index: 123
      x: 153
      y: 0
      width: 4
      height: 12
      offsetX: 0
      offsetY: 2
      advance: 5
      channel: 15
      kerning: 
    - index: 124
      x: 71
      y: 50
      width: 2
      height: 15
      offsetX: 0
      offsetY: 1
      advance: 3
      channel: 15
      kerning: 
    - index: 125
      x: 69
      y: 6
      width: 4
      height: 12
      offsetX: 0
      offsetY: 2
      advance: 5
      channel: 15
      kerning: 4c000000ffffffff
    - index: 126
      x: 14
      y: 70
      width: 6
      height: 2
      offsetX: 0
      offsetY: 8
      advance: 6
      channel: 15
      kerning: 
    - index: 161
      x: 86
      y: 103
      width: 2
      height: 12
      offsetX: 0
      offsetY: 2
      advance: 3
      channel: 15
      kerning: 
    - index: 162
      x: 89
      y: 82
      width: 11
      height: 14
      offsetX: 0
      offsetY: 2
      advance: 10
      channel: 15
      kerning: 
    - index: 163
      x: 245
      y: 116
      width: 11
      height: 12
      offsetX: 0
      offsetY: 2
      advance: 12
      channel: 15
      kerning: 
    - index: 168
      x: 48
      y: 47
      width: 5
      height: 2
      offsetX: 0
      offsetY: -2
      advance: 6
      channel: 15
      kerning: 
    - index: 176
      x: 66
      y: 34
      width: 5
      height: 6
      offsetX: 1
      offsetY: 2
      advance: 7
      channel: 15
      kerning: 
    - index: 180
      x: 19
      y: 54
      width: 3
      height: 3
      offsetX: 0
      offsetY: -3
      advance: 3
      channel: 15
      kerning: 
    - index: 182
      x: 101
      y: 51
      width: 13
      height: 12
      offsetX: 0
      offsetY: 2
      advance: 13
      channel: 15
      kerning: 
    - index: 184
      x: 65
      y: 2
      width: 3
      height: 3
      offsetX: 0
      offsetY: 14
      advance: 3
      channel: 15
      kerning: 4c000000ffffffff
    - index: 191
      x: 141
      y: 58
      width: 11
      height: 12
      offsetX: 0
      offsetY: 2
      advance: 11
      channel: 15
      kerning: 
    - index: 192
      x: 37
      y: 65
      width: 12
      height: 16
      offsetX: 1
      offsetY: -2
      advance: 13
      channel: 15
      kerning: 
    - index: 193
      x: 37
      y: 82
      width: 12
      height: 16
      offsetX: 1
      offsetY: -2
      advance: 13
      channel: 15
      kerning: 
    - index: 194
      x: 23
      y: 12
      width: 12
      height: 16
      offsetX: 1
      offsetY: -2
      advance: 13
      channel: 15
      kerning: 
    - index: 195
      x: 23
      y: 29
      width: 12
      height: 16
      offsetX: 1
      offsetY: -2
      advance: 13
      channel: 15
      kerning: 
    - index: 196
      x: 54
      y: 102
      width: 12
      height: 15
      offsetX: 1
      offsetY: -1
      advance: 13
      channel: 15
      kerning: 
    - index: 197
      x: 37
      y: 99
      width: 12
      height: 16
      offsetX: 1
      offsetY: -2
      advance: 13
      channel: 15
      kerning: 
    - index: 198
      x: 0
      y: 116
      width: 22
      height: 12
      offsetX: 0
      offsetY: 2
      advance: 22
      channel: 15
      kerning: 
    - index: 199
      x: 37
      y: 30
      width: 13
      height: 14
      offsetX: 0
      offsetY: 2
      advance: 13
      channel: 15
      kerning: 
    - index: 200
      x: 54
      y: 32
      width: 11
      height: 16
      offsetX: 1
      offsetY: -2
      advance: 12
      channel: 15
      kerning: 
    - index: 201
      x: 54
      y: 49
      width: 11
      height: 16
      offsetX: 1
      offsetY: -2
      advance: 12
      channel: 15
      kerning: a2000000ffffffff
    - index: 202
      x: 54
      y: 66
      width: 11
      height: 16
      offsetX: 1
      offsetY: -2
      advance: 12
      channel: 15
      kerning: 
    - index: 203
      x: 74
      y: 100
      width: 11
      height: 15
      offsetX: 1
      offsetY: -1
      advance: 12
      channel: 15
      kerning: 
    - index: 204
      x: 50
      y: 82
      width: 3
      height: 16
      offsetX: 0
      offsetY: -2
      advance: 4
      channel: 15
      kerning: 
    - index: 205
      x: 50
      y: 99
      width: 3
      height: 16
      offsetX: 0
      offsetY: -2
      advance: 4
      channel: 15
      kerning: 
    - index: 206
      x: 65
      y: 85
      width: 4
      height: 16
      offsetX: -1
      offsetY: -2
      advance: 4
      channel: 15
      kerning: 3b000000ffffffff4c000000ffffffff
    - index: 207
      x: 14
      y: 36
      width: 5
      height: 15
      offsetX: -1
      offsetY: -1
      advance: 4
      channel: 15
      kerning: 
    - index: 209
      x: 0
      y: 86
      width: 13
      height: 16
      offsetX: 0
      offsetY: -2
      advance: 13
      channel: 15
      kerning: 
    - index: 210
      x: 0
      y: 52
      width: 13
      height: 16
      offsetX: 0
      offsetY: -2
      advance: 13
      channel: 15
      kerning: 
    - index: 211
      x: 0
      y: 69
      width: 13
      height: 16
      offsetX: 0
      offsetY: -2
      advance: 13
      channel: 15
      kerning: 
    - index: 212
      x: 23
      y: 78
      width: 13
      height: 16
      offsetX: 0
      offsetY: -2
      advance: 13
      channel: 15
      kerning: 
    - index: 213
      x: 23
      y: 95
      width: 13
      height: 16
      offsetX: 0
      offsetY: -2
      advance: 13
      channel: 15
      kerning: 
    - index: 214
      x: 23
      y: 46
      width: 13
      height: 15
      offsetX: 0
      offsetY: -1
      advance: 13
      channel: 15
      kerning: 
    - index: 215
      x: 14
      y: 18
      width: 8
      height: 6
      offsetX: 0
      offsetY: 6
      advance: 9
      channel: 15
      kerning: 
    - index: 217
      x: 23
      y: 112
      width: 13
      height: 16
      offsetX: 0
      offsetY: -2
      advance: 13
      channel: 15
      kerning: 
    - index: 218
      x: 0
      y: 1
      width: 13
      height: 16
      offsetX: 0
      offsetY: -2
      advance: 13
      channel: 15
      kerning: 
    - index: 219
      x: 0
      y: 18
      width: 13
      height: 16
      offsetX: 0
      offsetY: -2
      advance: 13
      channel: 15
      kerning: 
    - index: 220
      x: 23
      y: 62
      width: 13
      height: 15
      offsetX: 0
      offsetY: -1
      advance: 13
      channel: 15
      kerning: 
    - index: 221
      x: 0
      y: 35
      width: 13
      height: 16
      offsetX: 0
      offsetY: -2
      advance: 13
      channel: 15
      kerning: 
    - index: 223
      x: 101
      y: 38
      width: 13
      height: 12
      offsetX: 0
      offsetY: 2
      advance: 13
      channel: 15
      kerning: 
    - index: 224
      x: 89
      y: 97
      width: 11
      height: 15
      offsetX: 0
      offsetY: -1
      advance: 12
      channel: 15
      kerning: 
    - index: 225
      x: 89
      y: 113
      width: 11
      height: 15
      offsetX: 0
      offsetY: -1
      advance: 12
      channel: 15
      kerning: 
    - index: 226
      x: 89
      y: 22
      width: 11
      height: 14
      offsetX: 0
      offsetY: 0
      advance: 12
      channel: 15
      kerning: 
    - index: 227
      x: 129
      y: 11
      width: 11
      height: 14
      offsetX: 0
      offsetY: 0
      advance: 12
      channel: 15
      kerning: 
    - index: 228
      x: 89
      y: 7
      width: 11
      height: 14
      offsetX: 0
      offsetY: 0
      advance: 12
      channel: 15
      kerning: 
    - index: 229
      x: 89
      y: 52
      width: 11
      height: 14
      offsetX: 0
      offsetY: 0
      advance: 12
      channel: 15
      kerning: 
    - index: 230
      x: 54
      y: 118
      width: 19
      height: 10
      offsetX: 0
      offsetY: 4
      advance: 19
      channel: 15
      kerning: a2000000ffffffff
    - index: 231
      x: 141
      y: 19
      width: 11
      height: 12
      offsetX: 0
      offsetY: 4
      advance: 11
      channel: 15
      kerning: 
    - index: 232
      x: 74
      y: 20
      width: 11
      height: 15
      offsetX: 0
      offsetY: -1
      advance: 10
      channel: 15
      kerning: 
    - index: 233
      x: 74
      y: 4
      width: 11
      height: 15
      offsetX: 0
      offsetY: -1
      advance: 10
      channel: 15
      kerning: 3b000000ffffffffa2000000ffffffff
    - index: 234
      x: 129
      y: 101
      width: 11
      height: 14
      offsetX: 0
      offsetY: 0
      advance: 10
      channel: 15
      kerning: 
    - index: 235
      x: 89
      y: 67
      width: 11
      height: 14
      offsetX: 0
      offsetY: 0
      advance: 10
      channel: 15
      kerning: 
    - index: 236
      x: 20
      y: 36
      width: 2
      height: 15
      offsetX: 0
      offsetY: -1
      advance: 3
      channel: 15
      kerning: 
    - index: 237
      x: 50
      y: 66
      width: 3
      height: 15
      offsetX: 0
      offsetY: -1
      advance: 3
      channel: 15
      kerning: 
    - index: 238
      x: 66
      y: 51
      width: 4
      height: 14
      offsetX: -1
      offsetY: 0
      advance: 3
      channel: 15
      kerning: 
    - index: 239
      x: 48
      y: 50
      width: 5
      height: 14
      offsetX: -1
      offsetY: 0
      advance: 3
      channel: 15
      kerning: 3b000000ffffffff
    - index: 241
      x: 141
      y: 101
      width: 11
      height: 14
      offsetX: 0
      offsetY: 0
      advance: 11
      channel: 15
      kerning: 
    - index: 242
      x: 74
      y: 36
      width: 11
      height: 15
      offsetX: 0
      offsetY: -1
      advance: 11
      channel: 15
      kerning: 
    - index: 243
      x: 74
      y: 52
      width: 11
      height: 15
      offsetX: 0
      offsetY: -1
      advance: 11
      channel: 15
      kerning: 3b000000ffffffff
    - index: 244
      x: 129
      y: 26
      width: 11
      height: 14
      offsetX: 0
      offsetY: 0
      advance: 11
      channel: 15
      kerning: 
    - index: 245
      x: 129
      y: 71
      width: 11
      height: 14
      offsetX: 0
      offsetY: 0
      advance: 11
      channel: 15
      kerning: 
    - index: 246
      x: 129
      y: 41
      width: 11
      height: 14
      offsetX: 0
      offsetY: 0
      advance: 11
      channel: 15
      kerning: 
    - index: 247
      x: 240
      y: 105
      width: 9
      height: 10
      offsetX: 0
      offsetY: 4
      advance: 8
      channel: 15
      kerning: 
    - index: 249
      x: 74
      y: 68
      width: 11
      height: 15
      offsetX: 0
      offsetY: -1
      advance: 11
      channel: 15
      kerning: 
    - index: 250
      x: 74
      y: 84
      width: 11
      height: 15
      offsetX: 0
      offsetY: -1
      advance: 11
      channel: 15
      kerning: 
    - index: 251
      x: 129
      y: 56
      width: 11
      height: 14
      offsetX: 0
      offsetY: 0
      advance: 11
      channel: 15
      kerning: 
    - index: 252
      x: 129
      y: 86
      width: 11
      height: 14
      offsetX: 0
      offsetY: 0
      advance: 11
      channel: 15
      kerning: 
    - index: 253
      x: 37
      y: 45
      width: 10
      height: 19
      offsetX: 0
      offsetY: -1
      advance: 11
      channel: 15
      kerning: 
    - index: 255
      x: 54
      y: 83
      width: 10
      height: 18
      offsetX: 0
      offsetY: 0
      advance: 11
      channel: 15
      kerning: 
  mAtlas: {fileID: 0}
  mReplacement: {fileID: 0}
  mSymbols: []
  mDynamicFont: {fileID: 0}
  mDynamicFontSize: 16
  mDynamicFontStyle: 0
