%YAML 1.1
%TAG !u! tag:unity3d.com,2011:
--- !u!1001 &100100000
Prefab:
  m_ObjectHideFlags: 1
  serializedVersion: 2
  m_Modification:
    m_TransformParent: {fileID: 0}
    m_Modifications: []
    m_RemovedComponents: []
  m_ParentPrefab: {fileID: 0}
  m_RootGameObject: {fileID: 1489276842472262}
  m_IsPrefabParent: 1
--- !u!1 &1489276842472262
GameObject:
  m_ObjectHideFlags: 0
  m_PrefabParentObject: {fileID: 0}
  m_PrefabInternal: {fileID: 100100000}
  serializedVersion: 5
  m_Component:
  - component: {fileID: 4573170774857706}
  - component: {fileID: 114190728344610078}
  m_Layer: 0
  m_Name: Popcorn_Mountain_Font
  m_TagString: Untagged
  m_Icon: {fileID: 0}
  m_NavMeshLayer: 0
  m_StaticEditorFlags: 0
  m_IsActive: 1
--- !u!4 &4573170774857706
Transform:
  m_ObjectHideFlags: 1
  m_PrefabParentObject: {fileID: 0}
  m_PrefabInternal: {fileID: 100100000}
  m_GameObject: {fileID: 1489276842472262}
  m_LocalRotation: {x: 0, y: 0, z: 0, w: 1}
  m_LocalPosition: {x: 0, y: 0, z: 0}
  m_LocalScale: {x: 1, y: 1, z: 1}
  m_Children: []
  m_Father: {fileID: 0}
  m_RootOrder: 0
  m_LocalEulerAnglesHint: {x: 0, y: 0, z: 0}
--- !u!114 &114190728344610078
MonoBehaviour:
  m_ObjectHideFlags: 1
  m_PrefabParentObject: {fileID: 0}
  m_PrefabInternal: {fileID: 100100000}
  m_GameObject: {fileID: 1489276842472262}
  m_Enabled: 1
  m_EditorHideFlags: 0
  m_Script: {fileID: 11500000, guid: 0b4eb3a400afab046abb8471a9d746d6, type: 3}
  m_Name: 
  m_EditorClassIdentifier: 
  mMat: {fileID: 2100000, guid: 2be2e56ab4617d1498625a0ae6c9386c, type: 2}
  mUVRect:
    serializedVersion: 2
    x: 0
    y: 0
    width: 1
    height: 1
  mFont:
    mSize: 16
    mBase: 0
    mWidth: 256
    mHeight: 128
    mSpriteName: 
    mSaved:
    - index: 32
      x: 0
      y: 0
      width: 0
      height: 0
      offsetX: 0
      offsetY: 0
      advance: 8
      channel: 15
      kerning: 
    - index: 33
      x: 63
      y: 97
      width: 5
      height: 18
      offsetX: 1
      offsetY: -8
      advance: 6
      channel: 15
      kerning: 26000000ffffffff2c000000ffffffff32000000ffffffff4c000000ffffffff4f000000ffffffff50000000ffffffffbe000000ffffffffdf000000ffffffffe4000000ffffffffed000000ffffffff
    - index: 34
      x: 31
      y: 42
      width: 4
      height: 5
      offsetX: 0
      offsetY: -3
      advance: 5
      channel: 15
      kerning: 
    - index: 35
      x: 107
      y: 21
      width: 10
      height: 14
      offsetX: 0
      offsetY: -4
      advance: 10
      channel: 15
      kerning: 2e00000001000000d400000001000000f300000001000000
    - index: 36
      x: 107
      y: 6
      width: 10
      height: 14
      offsetX: 0
      offsetY: -4
      advance: 11
      channel: 15
      kerning: 
    - index: 37
      x: 107
      y: 64
      width: 12
      height: 12
      offsetX: 0
      offsetY: -2
      advance: 12
      channel: 15
      kerning: 
    - index: 38
      x: 17
      y: 32
      width: 13
      height: 15
      offsetX: 0
      offsetY: -4
      advance: 13
      channel: 15
      kerning: 2f000000ffffffffd3000000ffffffff
    - index: 39
      x: 32
      y: 57
      width: 2
      height: 5
      offsetX: 0
      offsetY: -4
      advance: 2
      channel: 15
      kerning: 
    - index: 40
      x: 61
      y: 58
      width: 6
      height: 21
      offsetX: 1
      offsetY: -5
      advance: 7
      channel: 15
      kerning: 
    - index: 41
      x: 52
      y: 58
      width: 8
      height: 21
      offsetX: -1
      offsetY: -5
      advance: 8
      channel: 15
      kerning: 25000000ffffffff2c000000ffffffff2f0000000100000032000000ffffffffdf000000ffffffff
    - index: 42
      x: 193
      y: 64
      width: 8
      height: 6
      offsetX: 0
      offsetY: -3
      advance: 8
      channel: 15
      kerning: 2f00000001000000
    - index: 43
      x: 231
      y: 73
      width: 8
      height: 7
      offsetX: 1
      offsetY: 0
      advance: 9
      channel: 15
      kerning: 25000000010000002c000000ffffffff2e000000040000002f000000ffffffffdf000000ffffffffed00000003000000f300000004000000
    - index: 44
      x: 32
      y: 70
      width: 3
      height: 7
      offsetX: 1
      offsetY: 7
      advance: 4
      channel: 15
      kerning: 2a000000ffffffff32000000ffffffff4e000000ffffffff50000000ffffffffbe000000ffffffff
    - index: 45
      x: 8
      y: 2
      width: 7
      height: 2
      offsetX: 0
      offsetY: 2
      advance: 7
      channel: 15
      kerning: 2f0000000100000032000000ffffffff4e000000ffffffff50000000ffffffffbe000000ffffffff
    - index: 46
      x: 32
      y: 51
      width: 2
      height: 2
      offsetX: 1
      offsetY: 8
      advance: 4
      channel: 15
      kerning: 2f000000ffffffff32000000ffffffffed00000001000000
    - index: 47
      x: 159
      y: 28
      width: 8
      height: 14
      offsetX: 0
      offsetY: -4
      advance: 7
      channel: 15
      kerning: 23000000ffffffff29000000ffffffff30000000ffffffff31000000ffffffff32000000ffffffff4c000000ffffffff4e000000ffffffff50000000ffffffff72000000ffffffffbe000000ffffffffc3000000ffffffffdb000000ffffffff
    - index: 48
      x: 137
      y: 116
      width: 11
      height: 12
      offsetX: 0
      offsetY: -2
      advance: 11
      channel: 15
      kerning: 2f000000ffffffff32000000ffffffffd3000000ffffffff
    - index: 49
      x: 12
      y: 71
      width: 3
      height: 12
      offsetX: 2
      offsetY: -2
      advance: 7
      channel: 15
      kerning: 23000000ffffffff2f000000ffffffff
    - index: 50
      x: 120
      y: 5
      width: 11
      height: 12
      offsetX: 0
      offsetY: -2
      advance: 11
      channel: 15
      kerning: 2f000000ffffffff
    - index: 51
      x: 137
      y: 102
      width: 10
      height: 13
      offsetX: 0
      offsetY: -3
      advance: 10
      channel: 15
      kerning: 23000000ffffffff
    - index: 52
      x: 95
      y: 2
      width: 11
      height: 13
      offsetX: 0
      offsetY: -3
      advance: 11
      channel: 15
      kerning: 
    - index: 53
      x: 52
      y: 45
      width: 14
      height: 12
      offsetX: 0
      offsetY: -2
      advance: 13
      channel: 15
      kerning: 36000000ffffffff
    - index: 54
      x: 69
      y: 19
      width: 11
      height: 14
      offsetX: 0
      offsetY: -4
      advance: 11
      channel: 15
      kerning: 3c00000001000000
    - index: 55
      x: 210
      y: 117
      width: 12
      height: 11
      offsetX: 0
      offsetY: -2
      advance: 12
      channel: 15
      kerning: 
    - index: 56
      x: 148
      y: 91
      width: 10
      height: 12
      offsetX: 0
      offsetY: -2
      advance: 11
      channel: 15
      kerning: 36000000ffffffff
    - index: 57
      x: 69
      y: 113
      width: 11
      height: 15
      offsetX: 0
      offsetY: -3
      advance: 11
      channel: 15
      kerning: 
    - index: 58
      x: 12
      y: 50
      width: 4
      height: 8
      offsetX: 1
      offsetY: 1
      advance: 6
      channel: 15
      kerning: 39000000ffffffff
    - index: 59
      x: 12
      y: 96
      width: 4
      height: 13
      offsetX: 1
      offsetY: 0
      advance: 6
      channel: 15
      kerning: 36000000ffffffff
    - index: 60
      x: 185
      y: 49
      width: 7
      height: 10
      offsetX: 1
      offsetY: -1
      advance: 10
      channel: 15
      kerning: 
    - index: 61
      x: 0
      y: 0
      width: 7
      height: 4
      offsetX: 2
      offsetY: 1
      advance: 11
      channel: 15
      kerning: 
    - index: 62
      x: 185
      y: 60
      width: 7
      height: 10
      offsetX: 2
      offsetY: -1
      advance: 9
      channel: 15
      kerning: 2f00000002000000
    - index: 63
      x: 95
      y: 81
      width: 9
      height: 17
      offsetX: 1
      offsetY: -7
      advance: 9
      channel: 15
      kerning: 
    - index: 64
      x: 0
      y: 20
      width: 15
      height: 15
      offsetX: 0
      offsetY: -2
      advance: 15
      channel: 15
      kerning: 
    - index: 65
      x: 120
      y: 31
      width: 11
      height: 12
      offsetX: 0
      offsetY: -2
      advance: 11
      channel: 15
      kerning: 
    - index: 66
      x: 81
      y: 116
      width: 13
      height: 12
      offsetX: 0
      offsetY: -2
      advance: 13
      channel: 15
      kerning: 
    - index: 67
      x: 107
      y: 116
      width: 12
      height: 12
      offsetX: 0
      offsetY: -3
      advance: 12
      channel: 15
      kerning: 
    - index: 68
      x: 107
      y: 103
      width: 12
      height: 12
      offsetX: 0
      offsetY: -2
      advance: 12
      channel: 15
      kerning: 
    - index: 69
      x: 160
      y: 104
      width: 11
      height: 11
      offsetX: 0
      offsetY: -1
      advance: 11
      channel: 15
      kerning: 
    - index: 70
      x: 120
      y: 107
      width: 13
      height: 11
      offsetX: 0
      offsetY: -1
      advance: 13
      channel: 15
      kerning: 2a000000ffffffff32000000ffffffff4e000000ffffffff50000000ffffffffbe000000ffffffff
    - index: 71
      x: 81
      y: 103
      width: 13
      height: 12
      offsetX: 0
      offsetY: -2
      advance: 13
      channel: 15
      kerning: 
    - index: 72
      x: 137
      y: 32
      width: 10
      height: 13
      offsetX: 1
      offsetY: -3
      advance: 11
      channel: 15
      kerning: 
    - index: 73
      x: 250
      y: 104
      width: 6
      height: 11
      offsetX: 0
      offsetY: -1
      advance: 7
      channel: 15
      kerning: 
    - index: 74
      x: 159
      y: 63
      width: 9
      height: 13
      offsetX: 0
      offsetY: -2
      advance: 10
      channel: 15
      kerning: 
    - index: 75
      x: 185
      y: 117
      width: 12
      height: 11
      offsetX: 1
      offsetY: -1
      advance: 13
      channel: 15
      kerning: 
    - index: 76
      x: 159
      y: 77
      width: 9
      height: 13
      offsetX: 0
      offsetY: -2
      advance: 9
      channel: 15
      kerning: 2f00000001000000
    - index: 77
      x: 52
      y: 116
      width: 16
      height: 12
      offsetX: 1
      offsetY: -2
      advance: 17
      channel: 15
      kerning: 
    - index: 78
      x: 170
      y: 91
      width: 10
      height: 12
      offsetX: 1
      offsetY: -2
      advance: 11
      channel: 15
      kerning: 2f00000001000000
    - index: 79
      x: 81
      y: 47
      width: 12
      height: 13
      offsetX: 0
      offsetY: -3
      advance: 12
      channel: 15
      kerning: 2f000000020000003e000000ffffffffc7000000ffffffff
    - index: 80
      x: 214
      y: 93
      width: 10
      height: 10
      offsetX: 0
      offsetY: -1
      advance: 10
      channel: 15
      kerning: 2f00000001000000c3000000ffffffff
    - index: 81
      x: 81
      y: 75
      width: 12
      height: 13
      offsetX: 0
      offsetY: -1
      advance: 13
      channel: 15
      kerning: 
    - index: 82
      x: 223
      y: 117
      width: 11
      height: 11
      offsetX: 1
      offsetY: -1
      advance: 12
      channel: 15
      kerning: 
    - index: 83
      x: 247
      y: 117
      width: 9
      height: 11
      offsetX: 0
      offsetY: -2
      advance: 9
      channel: 15
      kerning: 
    - index: 84
      x: 107
      y: 90
      width: 12
      height: 12
      offsetX: 0
      offsetY: -2
      advance: 12
      channel: 15
      kerning: 2f00000002000000
    - index: 85
      x: 198
      y: 116
      width: 11
      height: 12
      offsetX: 0
      offsetY: -2
      advance: 11
      channel: 15
      kerning: 2f00000002000000
    - index: 86
      x: 181
      y: 91
      width: 10
      height: 12
      offsetX: 0
      offsetY: -2
      advance: 10
      channel: 15
      kerning: 
    - index: 87
      x: 120
      y: 54
      width: 14
      height: 10
      offsetX: 0
      offsetY: -1
      advance: 15
      channel: 15
      kerning: 
    - index: 88
      x: 17
      y: 4
      width: 15
      height: 13
      offsetX: 0
      offsetY: -3
      advance: 15
      channel: 15
      kerning: 
    - index: 89
      x: 192
      y: 91
      width: 10
      height: 12
      offsetX: 0
      offsetY: -2
      advance: 10
      channel: 15
      kerning: 
    - index: 90
      x: 120
      y: 95
      width: 13
      height: 11
      offsetX: 0
      offsetY: -1
      advance: 13
      channel: 15
      kerning: 
    - index: 91
      x: 169
      y: 45
      width: 6
      height: 16
      offsetX: 0
      offsetY: -3
      advance: 6
      channel: 15
      kerning: 60000000ffffffff
    - index: 92
      x: 169
      y: 76
      width: 8
      height: 14
      offsetX: 0
      offsetY: -4
      advance: 8
      channel: 15
      kerning: 
    - index: 93
      x: 29
      y: 79
      width: 6
      height: 17
      offsetX: -1
      offsetY: -4
      advance: 6
      channel: 15
      kerning: 
    - index: 94
      x: 194
      y: 73
      width: 9
      height: 7
      offsetX: 0
      offsetY: -3
      advance: 9
      channel: 15
      kerning: 3e000000ffffffffc7000000ffffffff
    - index: 95
      x: 52
      y: 1
      width: 8
      height: 1
      offsetX: 0
      offsetY: 11
      advance: 9
      channel: 15
      kerning: 
    - index: 96
      x: 27
      y: 0
      width: 4
      height: 3
      offsetX: 0
      offsetY: -3
      advance: 4
      channel: 15
      kerning: 21000000ffffffffed00000001000000f2000000ffffffff
    - index: 97
      x: 225
      y: 93
      width: 10
      height: 10
      offsetX: 0
      offsetY: 1
      advance: 10
      channel: 15
      kerning: 
    - index: 98
      x: 217
      y: 104
      width: 10
      height: 11
      offsetX: 0
      offsetY: -2
      advance: 10
      channel: 15
      kerning: 
    - index: 99
      x: 236
      y: 94
      width: 11
      height: 9
      offsetX: 0
      offsetY: 1
      advance: 11
      channel: 15
      kerning: 
    - index: 100
      x: 81
      y: 61
      width: 12
      height: 13
      offsetX: -1
      offsetY: -3
      advance: 11
      channel: 15
      kerning: 
    - index: 101
      x: 237
      y: 82
      width: 10
      height: 8
      offsetX: 0
      offsetY: 1
      advance: 10
      channel: 15
      kerning: 
    - index: 102
      x: 17
      y: 48
      width: 14
      height: 14
      offsetX: 0
      offsetY: -2
      advance: 12
      channel: 15
      kerning: 
    - index: 103
      x: 17
      y: 78
      width: 11
      height: 18
      offsetX: -1
      offsetY: 1
      advance: 11
      channel: 15
      kerning: 
    - index: 104
      x: 161
      y: 116
      width: 11
      height: 12
      offsetX: 0
      offsetY: -2
      advance: 11
      channel: 15
      kerning: 
    - index: 105
      x: 12
      y: 59
      width: 3
      height: 11
      offsetX: 1
      offsetY: -1
      advance: 5
      channel: 15
      kerning: 
    - index: 106
      x: 17
      y: 97
      width: 11
      height: 18
      offsetX: -7
      offsetY: -2
      advance: 6
      channel: 15
      kerning: 
    - index: 107
      x: 203
      y: 91
      width: 10
      height: 12
      offsetX: 0
      offsetY: -2
      advance: 10
      channel: 15
      kerning: 
    - index: 108
      x: 12
      y: 37
      width: 2
      height: 12
      offsetX: 1
      offsetY: -2
      advance: 5
      channel: 15
      kerning: 
    - index: 109
      x: 52
      y: 3
      width: 16
      height: 10
      offsetX: 0
      offsetY: 0
      advance: 16
      channel: 15
      kerning: 
    - index: 110
      x: 178
      y: 81
      width: 11
      height: 9
      offsetX: 0
      offsetY: 0
      advance: 11
      channel: 15
      kerning: 
    - index: 111
      x: 202
      y: 81
      width: 10
      height: 9
      offsetX: 0
      offsetY: 1
      advance: 10
      channel: 15
      kerning: 
    - index: 112
      x: 120
      y: 80
      width: 10
      height: 14
      offsetX: 0
      offsetY: 1
      advance: 11
      channel: 15
      kerning: 
    - index: 113
      x: 0
      y: 110
      width: 16
      height: 18
      offsetX: 0
      offsetY: -1
      advance: 11
      channel: 15
      kerning: 
    - index: 114
      x: 204
      y: 71
      width: 7
      height: 9
      offsetX: 0
      offsetY: 1
      advance: 8
      channel: 15
      kerning: 25000000ffffffff2c000000ffffffff2f0000000100000032000000ffffffffdf000000ffffffff
    - index: 115
      x: 169
      y: 2
      width: 8
      height: 10
      offsetX: 0
      offsetY: 0
      advance: 8
      channel: 15
      kerning: 
    - index: 116
      x: 248
      y: 91
      width: 8
      height: 12
      offsetX: 0
      offsetY: -2
      advance: 9
      channel: 15
      kerning: 
    - index: 117
      x: 190
      y: 81
      width: 11
      height: 9
      offsetX: 0
      offsetY: 1
      advance: 11
      channel: 15
      kerning: 
    - index: 118
      x: 248
      y: 81
      width: 8
      height: 9
      offsetX: 0
      offsetY: 1
      advance: 9
      channel: 15
      kerning: 
    - index: 119
      x: 120
      y: 44
      width: 15
      height: 9
      offsetX: 1
      offsetY: 1
      advance: 16
      channel: 15
      kerning: 
    - index: 120
      x: 213
      y: 82
      width: 11
      height: 8
      offsetX: 0
      offsetY: 1
      advance: 12
      channel: 15
      kerning: 
    - index: 121
      x: 0
      y: 36
      width: 11
      height: 22
      offsetX: -1
      offsetY: 1
      advance: 10
      channel: 15
      kerning: 
    - index: 122
      x: 225
      y: 82
      width: 11
      height: 8
      offsetX: 0
      offsetY: 1
      advance: 11
      channel: 15
      kerning: 
    - index: 123
      x: 29
      y: 97
      width: 6
      height: 18
      offsetX: 0
      offsetY: -3
      advance: 6
      channel: 15
      kerning: 
    - index: 124
      x: 104
      y: 30
      width: 1
      height: 18
      offsetX: 2
      offsetY: -3
      advance: 6
      channel: 15
      kerning: 
    - index: 125
      x: 159
      y: 43
      width: 6
      height: 19
      offsetX: 0
      offsetY: -3
      advance: 6
      channel: 15
      kerning: 
    - index: 126
      x: 17
      y: 0
      width: 9
      height: 3
      offsetX: 0
      offsetY: 2
      advance: 9
      channel: 15
      kerning: 
    - index: 161
      x: 178
      y: 46
      width: 5
      height: 18
      offsetX: 1
      offsetY: 0
      advance: 6
      channel: 15
      kerning: 
    - index: 162
      x: 169
      y: 62
      width: 8
      height: 13
      offsetX: 0
      offsetY: -1
      advance: 8
      channel: 15
      kerning: 
    - index: 163
      x: 137
      y: 74
      width: 10
      height: 13
      offsetX: 0
      offsetY: -3
      advance: 10
      channel: 15
      kerning: 
    - index: 164
      x: 185
      y: 71
      width: 8
      height: 9
      offsetX: 0
      offsetY: -1
      advance: 9
      channel: 15
      kerning: 2f000000010000004e000000ffffffff
    - index: 165
      x: 148
      y: 78
      width: 10
      height: 12
      offsetX: 0
      offsetY: -2
      advance: 10
      channel: 15
      kerning: 2f000000ffffffffd3000000ffffffff
    - index: 166
      x: 166
      y: 44
      width: 1
      height: 18
      offsetX: 3
      offsetY: -3
      advance: 6
      channel: 15
      kerning: 
    - index: 167
      x: 52
      y: 97
      width: 10
      height: 18
      offsetX: 0
      offsetY: -2
      advance: 10
      channel: 15
      kerning: 
    - index: 168
      x: 61
      y: 1
      width: 6
      height: 1
      offsetX: 0
      offsetY: -3
      advance: 6
      channel: 15
      kerning: 
    - index: 169
      x: 17
      y: 18
      width: 15
      height: 13
      offsetX: 0
      offsetY: -3
      advance: 15
      channel: 15
      kerning: 
    - index: 170
      x: 240
      y: 73
      width: 7
      height: 7
      offsetX: 0
      offsetY: -4
      advance: 7
      channel: 15
      kerning: 
    - index: 171
      x: 248
      y: 73
      width: 7
      height: 7
      offsetX: 0
      offsetY: 2
      advance: 7
      channel: 15
      kerning: 
    - index: 172
      x: 220
      y: 74
      width: 10
      height: 6
      offsetX: 0
      offsetY: 0
      advance: 11
      channel: 15
      kerning: 
    - index: 173
      x: 159
      y: 2
      width: 9
      height: 10
      offsetX: 1
      offsetY: -2
      advance: 11
      channel: 15
      kerning: 
    - index: 174
      x: 36
      y: 115
      width: 15
      height: 13
      offsetX: 0
      offsetY: -3
      advance: 15
      channel: 15
      kerning: 
    - index: 176
      x: 185
      y: 27
      width: 6
      height: 5
      offsetX: 0
      offsetY: -4
      advance: 6
      channel: 15
      kerning: 
    - index: 177
      x: 212
      y: 71
      width: 7
      height: 9
      offsetX: 1
      offsetY: -1
      advance: 9
      channel: 15
      kerning: 
    - index: 178
      x: 185
      y: 21
      width: 5
      height: 5
      offsetX: 0
      offsetY: -3
      advance: 5
      channel: 15
      kerning: 
    - index: 179
      x: 178
      y: 5
      width: 5
      height: 6
      offsetX: 0
      offsetY: -3
      advance: 5
      channel: 15
      kerning: 
    - index: 180
      x: 31
      y: 32
      width: 4
      height: 3
      offsetX: 0
      offsetY: -3
      advance: 4
      channel: 15
      kerning: 2f00000001000000f2000000ffffffff
    - index: 181
      x: 137
      y: 3
      width: 9
      height: 14
      offsetX: 1
      offsetY: 1
      advance: 11
      channel: 15
      kerning: 
    - index: 182
      x: 36
      y: 98
      width: 12
      height: 16
      offsetX: 0
      offsetY: -2
      advance: 11
      channel: 15
      kerning: 
    - index: 183
      x: 32
      y: 54
      width: 3
      height: 2
      offsetX: 1
      offsetY: 3
      advance: 5
      channel: 15
      kerning: 2f00000002000000
    - index: 184
      x: 31
      y: 36
      width: 4
      height: 5
      offsetX: 0
      offsetY: 9
      advance: 4
      channel: 15
      kerning: 
    - index: 185
      x: 32
      y: 64
      width: 3
      height: 5
      offsetX: 0
      offsetY: -3
      advance: 3
      channel: 15
      kerning: 
    - index: 186
      x: 107
      y: 0
      width: 7
      height: 5
      offsetX: 0
      offsetY: -3
      advance: 7
      channel: 15
      kerning: 
    - index: 187
      x: 178
      y: 12
      width: 6
      height: 7
      offsetX: 0
      offsetY: 2
      advance: 6
      channel: 15
      kerning: 
    - index: 188
      x: 36
      y: 16
      width: 14
      height: 13
      offsetX: 0
      offsetY: -3
      advance: 14
      channel: 15
      kerning: 
    - index: 189
      x: 17
      y: 63
      width: 14
      height: 14
      offsetX: 1
      offsetY: -3
      advance: 15
      channel: 15
      kerning: 
    - index: 190
      x: 0
      y: 5
      width: 16
      height: 14
      offsetX: 0
      offsetY: -4
      advance: 16
      channel: 15
      kerning: 2f00000001000000c3000000ffffffff
    - index: 191
      x: 95
      y: 30
      width: 8
      height: 18
      offsetX: 0
      offsetY: 0
      advance: 9
      channel: 15
      kerning: 2f00000001000000
    - index: 192
      x: 69
      y: 49
      width: 11
      height: 15
      offsetX: 0
      offsetY: -4
      advance: 11
      channel: 15
      kerning: 2f00000001000000
    - index: 193
      x: 69
      y: 81
      width: 11
      height: 15
      offsetX: 0
      offsetY: -4
      advance: 11
      channel: 15
      kerning: 2f00000001000000
    - index: 194
      x: 69
      y: 65
      width: 11
      height: 15
      offsetX: 0
      offsetY: -4
      advance: 11
      channel: 15
      kerning: 2f00000001000000
    - index: 195
      x: 95
      y: 114
      width: 11
      height: 14
      offsetX: 0
      offsetY: -4
      advance: 11
      channel: 15
      kerning: 2f00000002000000
    - index: 196
      x: 107
      y: 50
      width: 11
      height: 13
      offsetX: 0
      offsetY: -3
      advance: 11
      channel: 15
      kerning: 2f00000002000000
    - index: 197
      x: 81
      y: 2
      width: 11
      height: 14
      offsetX: 0
      offsetY: -4
      advance: 11
      channel: 15
      kerning: 2f00000002000000
    - index: 198
      x: 17
      y: 116
      width: 18
      height: 12
      offsetX: 0
      offsetY: -1
      advance: 18
      channel: 15
      kerning: 2f00000002000000
    - index: 199
      x: 36
      y: 47
      width: 12
      height: 16
      offsetX: 0
      offsetY: -3
      advance: 12
      channel: 15
      kerning: 2f00000002000000
    - index: 200
      x: 81
      y: 32
      width: 11
      height: 14
      offsetX: 0
      offsetY: -4
      advance: 11
      channel: 15
      kerning: 
    - index: 201
      x: 69
      y: 97
      width: 11
      height: 15
      offsetX: 0
      offsetY: -5
      advance: 11
      channel: 15
      kerning: 2f00000002000000
    - index: 202
      x: 69
      y: 4
      width: 11
      height: 14
      offsetX: 0
      offsetY: -4
      advance: 11
      channel: 15
      kerning: 2f000000010000004e000000ffffffff
    - index: 203
      x: 95
      y: 16
      width: 11
      height: 13
      offsetX: 0
      offsetY: -3
      advance: 11
      channel: 15
      kerning: 2f000000010000004e000000ffffffff
    - index: 204
      x: 169
      y: 29
      width: 6
      height: 15
      offsetX: 0
      offsetY: -5
      advance: 7
      channel: 15
      kerning: 2f000000010000004e000000ffffffff
    - index: 205
      x: 169
      y: 13
      width: 6
      height: 15
      offsetX: 0
      offsetY: -5
      advance: 7
      channel: 15
      kerning: 2f000000010000004e000000ffffffff
    - index: 206
      x: 178
      y: 65
      width: 6
      height: 15
      offsetX: 0
      offsetY: -5
      advance: 7
      channel: 15
      kerning: 2f000000010000004e000000ffffffff
    - index: 207
      x: 178
      y: 31
      width: 6
      height: 14
      offsetX: 0
      offsetY: -4
      advance: 7
      channel: 15
      kerning: 2f000000020000004e000000ffffffff
    - index: 208
      x: 107
      y: 77
      width: 12
      height: 12
      offsetX: 0
      offsetY: -2
      advance: 12
      channel: 15
      kerning: 2f000000020000004e000000ffffffff
    - index: 209
      x: 95
      y: 49
      width: 10
      height: 15
      offsetX: 1
      offsetY: -4
      advance: 11
      channel: 15
      kerning: 2f000000020000004e000000ffffffff
    - index: 210
      x: 36
      y: 64
      width: 12
      height: 16
      offsetX: 0
      offsetY: -5
      advance: 12
      channel: 15
      kerning: 2f000000020000004e000000ffffffff
    - index: 211
      x: 36
      y: 81
      width: 12
      height: 16
      offsetX: 0
      offsetY: -6
      advance: 12
      channel: 15
      kerning: 2f000000020000003e000000ffffffff4c000000ffffffff4e000000ffffffff4f000000ffffffff50000000ffffffffbe000000ffffffffc7000000fffffffff2000000ffffffff
    - index: 212
      x: 36
      y: 30
      width: 12
      height: 16
      offsetX: 0
      offsetY: -5
      advance: 12
      channel: 15
      kerning: 23000000ffffffff2f000000ffffffffd3000000ffffffff
    - index: 213
      x: 36
      y: 0
      width: 12
      height: 15
      offsetX: 0
      offsetY: -5
      advance: 12
      channel: 15
      kerning: 23000000ffffffff2f000000ffffffffd3000000ffffffff
    - index: 214
      x: 52
      y: 30
      width: 12
      height: 14
      offsetX: 0
      offsetY: -4
      advance: 12
      channel: 15
      kerning: 23000000ffffffff2f000000ffffffffd3000000ffffffff
    - index: 215
      x: 185
      y: 33
      width: 7
      height: 7
      offsetX: 1
      offsetY: 0
      advance: 9
      channel: 15
      kerning: 23000000ffffffff2f000000ffffffffd3000000ffffffff
    - index: 216
      x: 81
      y: 89
      width: 12
      height: 13
      offsetX: 0
      offsetY: -3
      advance: 12
      channel: 15
      kerning: 23000000ffffffff2f000000ffffffffd3000000ffffffff
    - index: 217
      x: 81
      y: 17
      width: 11
      height: 14
      offsetX: 0
      offsetY: -4
      advance: 11
      channel: 15
      kerning: 23000000ffffffff2f000000ffffffffd3000000ffffffff
    - index: 218
      x: 52
      y: 14
      width: 11
      height: 15
      offsetX: 0
      offsetY: -5
      advance: 11
      channel: 15
      kerning: 
    - index: 219
      x: 69
      y: 34
      width: 11
      height: 14
      offsetX: 0
      offsetY: -4
      advance: 11
      channel: 15
      kerning: 2f000000ffffffff32000000ffffffffd3000000ffffffff
    - index: 220
      x: 95
      y: 99
      width: 11
      height: 14
      offsetX: 0
      offsetY: -4
      advance: 11
      channel: 15
      kerning: 2f000000ffffffff32000000ffffffffd3000000ffffffff
    - index: 221
      x: 95
      y: 65
      width: 10
      height: 15
      offsetX: 0
      offsetY: -5
      advance: 10
      channel: 15
      kerning: 2f000000ffffffff32000000ffffffffd3000000ffffffff
    - index: 222
      x: 235
      y: 117
      width: 11
      height: 11
      offsetX: 0
      offsetY: -2
      advance: 11
      channel: 15
      kerning: 2f000000ffffffff32000000ffffffffd3000000ffffffff
    - index: 223
      x: 159
      y: 13
      width: 8
      height: 14
      offsetX: 1
      offsetY: -4
      advance: 9
      channel: 15
      kerning: 2a000000ffffffff32000000ffffffff4e000000ffffffff50000000ffffffffbe000000ffffffff
    - index: 224
      x: 148
      y: 65
      width: 10
      height: 12
      offsetX: 0
      offsetY: -2
      advance: 10
      channel: 15
      kerning: 2a000000ffffffff32000000ffffffff4e000000ffffffff50000000ffffffffbe000000ffffffff
    - index: 225
      x: 137
      y: 46
      width: 10
      height: 13
      offsetX: 0
      offsetY: -2
      advance: 10
      channel: 15
      kerning: 2a000000ffffffff32000000ffffffff4e000000ffffffff50000000ffffffffbe000000ffffffff
    - index: 226
      x: 148
      y: 52
      width: 10
      height: 12
      offsetX: 0
      offsetY: -2
      advance: 10
      channel: 15
      kerning: 2a000000ffffffff32000000ffffffff4e000000ffffffff50000000ffffffffbe000000ffffffff
    - index: 227
      x: 148
      y: 39
      width: 10
      height: 12
      offsetX: 0
      offsetY: -1
      advance: 10
      channel: 15
      kerning: 
    - index: 228
      x: 148
      y: 26
      width: 10
      height: 12
      offsetX: 0
      offsetY: -1
      advance: 10
      channel: 15
      kerning: 2f000000ffffffffd3000000ffffffff
    - index: 229
      x: 148
      y: 13
      width: 10
      height: 12
      offsetX: 0
      offsetY: -1
      advance: 10
      channel: 15
      kerning: 2f000000ffffffffd3000000ffffffff
    - index: 230
      x: 120
      y: 119
      width: 16
      height: 9
      offsetX: 0
      offsetY: 1
      advance: 16
      channel: 15
      kerning: 2f000000ffffffffd3000000ffffffff
    - index: 231
      x: 107
      y: 36
      width: 11
      height: 13
      offsetX: 0
      offsetY: 1
      advance: 11
      channel: 15
      kerning: 2f000000ffffffffd3000000ffffffff
    - index: 232
      x: 195
      y: 104
      width: 10
      height: 11
      offsetX: 0
      offsetY: -2
      advance: 10
      channel: 15
      kerning: 2f000000ffffffffd3000000ffffffff
    - index: 233
      x: 172
      y: 104
      width: 10
      height: 11
      offsetX: 0
      offsetY: -2
      advance: 10
      channel: 15
      kerning: 
    - index: 234
      x: 206
      y: 104
      width: 10
      height: 11
      offsetX: 0
      offsetY: -2
      advance: 10
      channel: 15
      kerning: 
    - index: 235
      x: 239
      y: 105
      width: 10
      height: 10
      offsetX: 0
      offsetY: -1
      advance: 10
      channel: 15
      kerning: 
    - index: 236
      x: 131
      y: 83
      width: 5
      height: 11
      offsetX: 1
      offsetY: -1
      advance: 5
      channel: 15
      kerning: 
    - index: 237
      x: 12
      y: 84
      width: 4
      height: 11
      offsetX: 1
      offsetY: -1
      advance: 5
      channel: 15
      kerning: 27000000010000002e000000010000003300000001000000e300000001000000f300000001000000
    - index: 238
      x: 178
      y: 20
      width: 5
      height: 10
      offsetX: 1
      offsetY: -1
      advance: 5
      channel: 15
      kerning: 
    - index: 239
      x: 131
      y: 69
      width: 5
      height: 10
      offsetX: 1
      offsetY: 0
      advance: 5
      channel: 15
      kerning: 23000000ffffffff2f000000ffffffffd3000000ffffffff
    - index: 240
      x: 120
      y: 65
      width: 10
      height: 14
      offsetX: 0
      offsetY: -2
      advance: 10
      channel: 15
      kerning: 2f00000001000000
    - index: 241
      x: 183
      y: 105
      width: 11
      height: 10
      offsetX: 0
      offsetY: -1
      advance: 11
      channel: 15
      kerning: 2f000000ffffffff32000000ffffffffd3000000ffffffff
    - index: 242
      x: 137
      y: 18
      width: 10
      height: 13
      offsetX: 0
      offsetY: -3
      advance: 10
      channel: 15
      kerning: 2f00000001000000
    - index: 243
      x: 137
      y: 60
      width: 10
      height: 13
      offsetX: 0
      offsetY: -3
      advance: 10
      channel: 15
      kerning: 2f000000ffffffff32000000ffffffffed00000001000000
    - index: 244
      x: 137
      y: 88
      width: 10
      height: 13
      offsetX: 0
      offsetY: -3
      advance: 10
      channel: 15
      kerning: 2f00000002000000
    - index: 245
      x: 148
      y: 0
      width: 10
      height: 12
      offsetX: 0
      offsetY: -2
      advance: 10
      channel: 15
      kerning: 2f0000000100000032000000ffffffff4e000000ffffffff50000000ffffffffbe000000ffffffff
    - index: 246
      x: 159
      y: 91
      width: 10
      height: 12
      offsetX: 0
      offsetY: -2
      advance: 10
      channel: 15
      kerning: 23000000ffffffff3e000000ffffffffc7000000ffffffffd3000000ffffffff
    - index: 247
      x: 185
      y: 41
      width: 7
      height: 7
      offsetX: 1
      offsetY: 0
      advance: 8
      channel: 15
      kerning: 25000000010000002b000000030000002c000000ffffffff2e000000040000002f000000ffffffffdf000000ffffffffed00000003000000f300000004000000
    - index: 248
      x: 228
      y: 104
      width: 10
      height: 11
      offsetX: 0
      offsetY: -1
      advance: 10
      channel: 15
      kerning: 2f00000002000000
    - index: 249
      x: 149
      y: 116
      width: 11
      height: 12
      offsetX: 0
      offsetY: -2
      advance: 11
      channel: 15
      kerning: 
    - index: 250
      x: 173
      y: 116
      width: 11
      height: 12
      offsetX: 0
      offsetY: -2
      advance: 11
      channel: 15
      kerning: 2f000000010000004e000000ffffffff
    - index: 251
      x: 120
      y: 18
      width: 11
      height: 12
      offsetX: 0
      offsetY: -2
      advance: 11
      channel: 15
      kerning: 2f000000ffffffffd3000000ffffffff
    - index: 252
      x: 148
      y: 104
      width: 11
      height: 11
      offsetX: 0
      offsetY: -1
      advance: 11
      channel: 15
      kerning: 2f00000002000000
    - index: 253
      x: 0
      y: 84
      width: 11
      height: 25
      offsetX: -1
      offsetY: -2
      advance: 10
      channel: 15
      kerning: 
    - index: 254
      x: 52
      y: 80
      width: 11
      height: 16
      offsetX: 0
      offsetY: -2
      advance: 10
      channel: 15
      kerning: 2f00000002000000
    - index: 255
      x: 0
      y: 59
      width: 11
      height: 24
      offsetX: -1
      offsetY: -1
      advance: 10
      channel: 15
      kerning: 
  mAtlas: {fileID: 0}
  mReplacement: {fileID: 0}
  mSymbols: []
  mDynamicFont: {fileID: 0}
  mDynamicFontSize: 16
  mDynamicFontStyle: 0
